{
    "gitlab-token": {
        "gitlab.com": "glpat-9sD449tFfAaR7ZytaekV"
    },
    "http-basic": {
        "repo.magento.com": {
            "username": "cbb842dfe5c6b13a5e82ee3736e43f22",
            "password": "a3cd6560594ddfb6302579621b75ff88"
        }
    }
}
